[
  {
    "model": "serpent.marketplace",
    "pk": 1,
    "fields": {
      "name": "Metro",
      "tech_name": "metro"
    }
  },
  {
    "model": "serpent.marketplace",
    "pk": 2,
    "fields": {
      "name": "Впрок (Перекрёсток)",
      "tech_name": "vprok"
    }
  },
  {
    "model": "serpent.marketplace",
    "pk": 3,
    "fields": {
      "name": "Яндекс.Лавка",
      "tech_name": "lavka"
    }
  },
  {
    "model": "serpent.marketplace",
    "pk": 4,
    "fields": {
      "name": "СберМаркет",
      "tech_name": "sbermarket"
    }
  },
  {
    "model": "serpent.marketplace",
    "pk": 5,
    "fields": {
      "name": "OZON",
      "tech_name": "ozon"
    }
  },
  {
    "model": "serpent.marketplace",
    "pk": 6,
    "fields": {
      "name": "Wildberries",
      "tech_name": "wildberries"
    }
  }
]